............
----------------------------------------------------------------------
Ran 12 tests in 0.110s

OK
Name             Stmts   Miss Branch BrPart  Cover   Missing
------------------------------------------------------------
Collatz.py          47      0     18      0   100%
TestCollatz.py      47      0      0      0   100%
------------------------------------------------------------
TOTAL               94      0     18      0   100%
