1 10 20
100 200 125
201 210 89
900 1000 174
6742 4233 262
6521 9949 260
6296 7399 257
7694 6715 257
4887 1041 238
7060 4277 262
1771 4740 238
6689 1213 262
9638 8918 260
1306 8123 262
9143 2309 262
1057 3618 217
8298 8985 247
5048 5895 236
8141 6205 257
4006 9508 262
8517 2619 262
8281 9489 260
2253 1278 183
6025 4676 236
1024 7222 262
4595 5228 210
1068 7282 262
9474 7770 260
1928 7429 262
6575 4553 262
6407 9015 257
6888 2476 262
7853 9446 260
6070 4633 236
8261 8608 234
4044 3537 238
8676 6937 257
5771 2805 238
1349 1936 180
6534 6087 262
3601 7891 262
8749 1633 262
5741 8066 262
4773 9086 262
388 422 134
756 47 171
155 713 171
449 179 144
677 652 145
54 785 171
391 392 121
558 390 142
146 837 171
627 786 171
46852 35556 324
18687 25592 282
15852 41997 324
43082 11508 324
32048 19962 308
45456 28191 324
21826 18172 274
38727 27492 324
12752 21634 279
46520 48841 314
41440 10762 324
37539 30083 324
32065 23457 308
27109 43898 324
48541 20951 324
33062 24911 308
26641 37879 324
21606 27033 308
45603 23229 324
42016 24946 324
24695 12119 282
21954 36374 324
14085 14551 209
11243 17766 279
21842 26880 308
24556 19627 282
10506 11446 268
33340 24500 308
19947 29292 308
38740 26546 324
29578 31224 272
43991 29341 324
23152 34562 311
33270 39410 324
12329 13309 276
39729 48174 314
30791 13130 308
47994 15959 324
13012 14026 276
48226 25623 324
117548 140435 344
120717 103520 354
192395 186370 360
148787 196604 383
161392 146871 383
125619 130281 344
100668 117947 354
178232 187390 365
128443 145059 375
193042 162522 365
273218 405198 441
462984 435088 444
311842 298360 371
416441 337908 449
201118 302317 443
958156 602266 525
767911 777484 437
849259 514186 525
572020 734817 509
971287 889766 507
