.................
----------------------------------------------------------------------
Ran 17 tests in 0.608s

OK
Name             Stmts   Miss Branch BrPart  Cover   Missing
------------------------------------------------------------
Collatz.py          54      1     24      1    97%   71, 70->71
TestCollatz.py      72      0      0      0   100%
------------------------------------------------------------
TOTAL              126      1     24      1    99%
