1 10 20
100 200 125
201 210 89
900 1000 174
1 2 2
1 100 119
610 301 144
508 227 144
402 641 142
73 719 171
443 579 142
222 638 144
520 634 137
93 745 171
690 763 171
541 814 171
717 145 171
168 631 144
794 966 179
435 874 179
356 392 121
632 781 171
511 554 137
582 21 144
111 46 119
891 528 179
344 714 171
472 525 142
26 881 179
413 400 134
430 641 142
963 450 179
252 836 171
418 698 145
343 987 179
304 377 144
58 358 144
520 523 124
920 895 130
886 694 179
280 37 128
588 333 142
723 913 179
539 874 179
605 665 145
623 86 144
134 575 144
379 742 171
288 130 128
735 864 153
755 861 153
718 432 171
69 643 144
369 221 144
953 26 179
416 979 179
66 170 122
595 176 144
566 923 179
542 267 144
6665 1073 262
1128 495 179
5670 4696 236
848 2071 182
1239 9600 262
3796 2750 238
3129 4647 238
9009 8551 247
3914 233 238
922 9287 262
9112 6289 257
4689 1562 238
9095 8922 247
1551 9203 262
3999 3230 238
4045 7954 262
1548 1681 180
7905 1241 262
9587 6357 260
4 9065 262
6247 8490 257
9770 3775 262
4021 73888 340
83470 40924 351
78713 28645 351
7701 27729 308
64807 55837 335
94704 85984 333
57255 1858 340
11550 95723 351
72201 49525 340
16034 64816 340
42293 32146 324
14485 55522 340
36994 72578 340
44580 36062 306
7898 47292 324
83156 57174 351
59039 75436 335
79023 53679 351
42206 32893 324
10777 71041 340
77253 91351 338
999999 999999 259
1 999999 525
1000 999999 525
900000 999999 507
999998 999999 259
