1 10 20
100 200 125
201 210 89
900 1000 174
1 3000 217
9000 9999 260
9560 9999 242
1 10000 262
1200 2000 180
2500 3100 217
2500 3000 217
3000 4005 238
3000 3001 49
4000 5500 215
5000 6500 262
6500 7500 257
90 1000 179
7000 8500 252
2507 10522 262
1 2 2
1 3 8
1 4 8
1 5 8
1 6 9
1 7 17
1 8 17
1 9 20
1 10 20
9999 10000 92
9999 11000 268
11000 12000 250
12000 13000 263
14000 15000 271
100001 101000 341
101001 102000 310
102001 103000 310
103001 104000 248
104001 105000 310
105001 106000 341
106001 107000 354
107001 108000 292
108001 109000 279
109001 110000 310
110001 111000 292
111001 112000 323
112001 113000 323
113001 114000 292
114001 115000 305
115001 116000 349
116001 117000 305
117001 118000 305
118001 119000 336
119001 120000 305
120001 121000 318
121001 122000 336
122001 123000 318
123001 124000 331
124001 125000 287
125001 126000 318
126001 127000 331
127001 128000 287
128001 129000 331
129001 130000 344
130001 131000 331
131001 132000 300
132001 133000 331
133001 134000 313
134001 135000 300
135001 136000 344
136001 137000 313
137001 138000 331
138001 139000 313
139001 140000 313
140001 141000 344
141001 142000 326
142001 143000 375
143001 144000 282
144001 145000 326
145001 146000 295
146001 147000 357
147001 148000 295
148001 149000 326
149001 150000 326
150001 151000 370
151001 152000 295
152001 153000 308
153001 154000 308
154001 155000 352
155001 156000 308
156001 157000 383
157001 158000 339
158001 159000 321
159001 160000 352
160001 161000 370
161001 162000 290
162001 163000 339
163001 164000 321
164001 165000 334
165001 166000 321
166001 167000 352
167001 168000 321
168001 169000 321
169001 170000 334
170001 171000 290
171001 172000 334
172001 173000 303
173001 174000 347
174001 175000 334
175001 176000 272
176001 177000 334
177001 178000 334
178001 179000 347
179001 180000 303
180001 181000 365
181001 182000 316
182001 183000 334
183001 184000 254
184001 185000 316
185001 186000 329
186001 187000 347
187001 188000 329
188001 189000 316
189001 190000 360
190001 191000 329
191001 192000 329
192001 193000 347
193001 194000 329
194001 195000 342
195001 196000 360
196001 197000 298
197001 198000 285
198001 199000 329
199001 200000 329
200001 201000 342
201001 202000 311
202001 203000 342
203001 204000 311
204001 205000 311
205001 206000 355
206001 207000 373
207001 208000 311
208001 209000 311
209001 210000 311
210001 211000 342
211001 212000 355
212001 213000 355
213001 214000 373
214001 215000 293
215001 216000 280
216001 217000 386
217001 218000 324
218001 219000 324
219001 220000 355
220001 221000 324
221001 222000 355
222001 223000 324
223001 224000 324
224001 225000 324
225001 226000 368
226001 227000 368
227001 228000 306
228001 229000 355
229001 230000 306
230001 231000 443
231001 232000 350
232001 233000 337
233001 234000 368
234001 235000 381
235001 236000 306
236001 237000 337
237001 238000 350
238001 239000 306
239001 240000 350
240001 241000 368
241001 242000 275
242001 243000 319
243001 244000 337
244001 245000 275
245001 246000 319
246001 247000 332
247001 248000 350
248001 249000 288
249001 250000 350
250001 251000 332
251001 252000 319
252001 253000 319
253001 254000 332
254001 255000 363
255001 256000 288
256001 257000 332
257001 258000 345
258001 259000 301
259001 260000 345
260001 261000 332
261001 262000 332
262001 263000 301
263001 264000 407
264001 265000 332
265001 266000 332
266001 267000 314
